1481285470
a:2:{s:7:"content";s:2350:"<p>Folgende Pakete müssen installiert werden.</p>
<ul>
<li><strong>hostapd</strong>: Verwandelt den Raspberry Pi in einen Access Point.
(Als Standalone/Serverversion installieren)</li>
<li><strong>dnsmasq</strong>: Bietet DNS / DHCP Dienste an.</li>
</ul>
<pre><code>sudo apt-get install hostapd dnsmasq</code></pre>
<h5>Hostapd</h5>
<p>Als ersten Schritt müssen wir dem hostapd Dienst mitteilen, in welcher Datei wir ihn konfigurieren.<br />
<code>sudo nano /etc/default/hostapd</code> - Default konfigurationsdatei von hostapd.</p>
<p>In folgender Zeile definieren wir nun unsere Einstellungsdatei:</p>
<pre><code>DAEMON_CONF="/etc/hostapd/hostapd.conf"</code></pre>
<p>Mit <code>sudo nano /etc/hostapd/hostapd.conf</code> passen wir nun so unseren Hotspot an.
(<code>#</code> kennzeichnet einen Kommentar, welcher vom Code ignoriert werden)</p>
<pre><code>#Definieren des Interfaces
 interface=wlan0

 #Treiber für die WLAN-Lösung (nl80211 für Raspberry Pi 3 &amp; für Logilink WL0084B)
 driver=nl80211
 country_code=DE

 # Deamon-Einstellungen
 ctrl_interface=/var/run/hostapd
 ctrl_interface_group=0

 # WLAN-Konfiguration
 ssid=MeloDealer
 channel=1
 hw_mode=g
 ieee80211n=1
</code></pre>
<blockquote>
<blockquote>
<blockquote>
<p>Passwort Einstellungen können hier ebenfalls definiert werden!</p>
</blockquote>
</blockquote>
</blockquote>
<h5>Dnsmasq</h5>
<p><code>sudo nano /etc/dnsmasq.conf</code> - Hier befinden sich die Einstellungen des DNSMASQ Dienstes.<br />
Hier müssen nur zwei Zeilen am Ende der Datei angefügt werden.</p>
<pre><code>#Definieren des Interfaces
 interface=wlan0

 #Definieren des IP-Bereiches, welcher an die Clients des Hotspot's verteilt werden sollen.
 #    Adressbereich: 192.168.5.100 - 192.168.5.200
 #    Subnetzmaske: 255.255.255.0
 #    Leasetime: 12h --&gt; Dauer, wie lange sich der Pi die Clients merkt.
 dhcp-range=192.168.5.100,192.168.5.200,255.255.255.0,12h
</code></pre>
<hr />
<p>Abschließend muss noch dem Raspberry Pi eine statische IP-Adresse vergeben werden.
Wie alle Netzwerkeinstellungen verändern wir die <strong>interfaces</strong> Datei mit <code>sudo nano /etc/network/interfaces</code>.</p>
<pre><code>auto lo
 iface lo inet loopback
 iface eth0 inet manual
 auto wlan0
 allow-hotplug wlan0
 iface wlan0 inet static
   address 192.168.5.1
   netmask 255.255.255.0</code></pre>";s:12:"content_meta";N;}