1481286887
a:2:{s:7:"content";s:509:"<table>
<thead>
<tr>
<th style="text-align: left;">Version 0.0.0.0 2016-11-24</th>
<th style="text-align: right;"><a href="/Website/melodealer/de/basics/apk/app-debug.apk" class="button big">Download</a></th>
</tr>
</thead>
<tbody>
</tbody>
</table>
<h4>changelog:</h4>
<ul>
<li>Download der Musik Dateien vom Pi</li>
<li>Designänderungen</li>
</ul>
<blockquote>
<blockquote>
<blockquote>
<p>Applikation ist kompatibel mit <strong>Android 4.1</strong> aufwärts.</p>
</blockquote>
</blockquote>
</blockquote>";s:12:"content_meta";N;}