1481285470
a:2:{s:7:"content";s:4247:"<p>Um in der App die Möglichkeit zu haben, einen USB Stick nach Musik zu scannen und diese der Playlist hinzuzufügen, müssen USB-Sticks automatisch gemountet werden. In den Raspbian Versionen mit einer grafischen Oberfläche ist dies ohne weiteres möglich, in der <em>Lite</em>-Version ist dies nicht der Fall.
Der erste Schritt wäre den Treiber für die das <strong>NTFS</strong>-Dateisystem zu installieren. <strong>FAT</strong>-Treiber sind bereits vorhanden.</p>
<ul>
<li><strong>ntfs-3g</strong>: Fehlendes NTFS-Treiberpaket</li>
<li><strong>usbmount</strong>: Tool, welches die Mounting-Arbeit für uns übernimmt.</li>
</ul>
<pre><code>sudo apt-get install ntfs-3g usbmount</code></pre>
<p><code>sudo nano /etc/usbmount/usbmount.conf</code>- Konfigurationsdatei von <em>usbmount</em></p>
<p>In diesem Dokument muss festgehalten werden, welche Dateisysteme gemountet werden sollen.</p>
<pre><code>FILESYSTEMS="vfat ntfs fuseblk ext2 ext3 ext4 hfsplus"</code></pre>
<p>Desweiteren muss definiert sein, wie diese Dateisysteme gemountet werden sollen.
Diese Einträge in <em>FS_MOUNTOPTIONS</em> sind besonders wichtig:</p>
<ul>
<li><strong>ntfs-3g / fuseblk</strong></li>
<li><strong>vfat</strong></li>
</ul>
<pre><code>FS_MOUNTOPTIONS="-fstype=ntfs-3g,nls=utf8,umask=007,gid=46
-fstype=fuseblk,nls=utf8,umask=007,gid=46 -fstype=vfat,gid=1000,uid=1000,umask=007"</code></pre>
<blockquote>
<blockquote>
<blockquote>
<p>Um NTFS-Dateisysteme mounten zu können muss in <strong>FILESYSTEMS=""</strong> die Einträge <strong>ntfs</strong> und <strong>fuseblk</strong> hinzugefügt werden. Manchmal listet das <em>ntfs-3g</em>-Paket NTFS-Geräte nämlich als <em>fuseblk</em>.<br />
In <strong>FS_MOUNTOPTIONS=""</strong> können Dateisysteme beginnend mit <strong>-fstype=</strong> definiert werden.</p>
</blockquote>
</blockquote>
</blockquote>
<hr />
<h5>Bugfix</h5>
<p>Es kann auftreten, dass USB-Sticks nun gemountet werden, allerdings nach einer Sekunde wieder entfernt werden und nicht mehr zugreifbar sind.
Christian Weinberger hat im Internet einen Fix für dieses Problem veröffentlicht. Dazu müssen folgende Schritte befolgt werden.</p>
<p><code>sudo nano /etc/udev/rules.d/usbmount.rules</code> - Regeln zum Entfernen von USB-Geräten</p>
<pre><code>KERNEL=="sd*", DRIVERS=="sbp2",         ACTION=="add",  PROGRAM="/bin/systemd-escape -p --template=usbmount@.service $env{DEVNAME}", ENV{SYSTEMD_WANTS}+="%c"
 KERNEL=="sd*", SUBSYSTEMS=="usb",       ACTION=="add",  PROGRAM="/bin/systemd-escape -p --template=usbmount@.service $env{DEVNAME}", ENV{SYSTEMD_WANTS}+="%c"
 KERNEL=="ub*", SUBSYSTEMS=="usb",       ACTION=="add",  PROGRAM="/bin/systemd-escape -p --template=usbmount@.service $env{DEVNAME}", ENV{SYSTEMD_WANTS}+="%c"
 KERNEL=="sd*",                          ACTION=="remove",       RUN+="/usr/share/usbmount/usbmount remove"
 KERNEL=="ub*",                          ACTION=="remove",       RUN+="/usr/share/usbmount/usbmount remove"</code></pre>
<p><code>sudo nano /etc/systemd/system/usbmount@.service</code> - Benötigter Service</p>
<pre><code>[Unit]
 BindTo=%i.device
 After=%i.device

 [Service]
 Type=oneshot
 TimeoutStartSec=0
 Environment=DEVNAME=%I
 ExecStart=/usr/share/usbmount/usbmount add
 RemainAfterExit=yes
</code></pre>
<p><code>sudo reboot</code> - Startet den Raspberry neu.</p>
<blockquote>
<blockquote>
<blockquote>
<p>Mit dem Befehl <code>cat /etc/mtab</code> sieht man, auf welches Verzeichnis die eingebundenen USB-Geräte zugewiesen sind. Standardmäßig werden die Geräte im Ordner <strong>/media/usb0</strong> bis <strong>/media/usb7</strong> zugewiesen. Eine weitere Auflistungsmöglichkeit, welche einige Details verbergt, ist <code>ls -l /dev/disk/by-uuid/</code>.</p>
</blockquote>
</blockquote>
</blockquote>
<hr />
<h5>Symbolische Links</h5>
<p>Dieser Schritt ist wichtig, damit die Applikation bei Verwaltung eines USB-Sticks richtig funktioniert. Eine Vorraussetzung ist es, das gemountete USB-Sticks von dem Ordner <strong>/home/pi/Musik/usbstick0</strong> aus erreichbar sind. Um jetzt nicht alle gemountete Geräte, in den Musik Ordner des MPD-Servers zu verschieben, erstellen wir einen symbolischen Link mit <code>sudo ln –s /media/usbstick0 /home/pi/Musik/usbstick0</code>.</p>";s:12:"content_meta";N;}