1481582143
a:2:{s:7:"content";s:2114:"<p>Am besten lässt sich der Webserver des Raspberry Pi über einen FTP-Clienten (z.B <em>FileZilla</em>) updaten. Einer von vielen ist <strong>proftpd</strong>.</p>
<pre><code>sudo apt-get install proftpd</code></pre>
<p>Um den FTP Dienst PROFTPD mitzuteilen, dass wir auf den Webserver Ordner /var/www/html/ zugreifen wollen, müssen wir dessen Konfigurationsdatei unter <strong>/etc/proftpd/proftpd.conf</strong> folgende Zeilen anhängen.</p>
<pre><code>DefaultRoot ~
AuthOrder mod_auth_file.c mod_auth_unix.c
AuthUserFile /etc/proftpd/ftpd.passwd
AuthPAM off
RequireValidShell off
</code></pre>
<p>Anschließend müssen FTP-Benutzer erstellt werden, mit dem wir uns in einem FTP-Clienten auf einem Computer auf den Raspberry Pi einwählen können.<br />
<code>cd /etc/proftpd/</code> - Wechselt in den entsprechnenden proftpd Ordner.</p>
<p><code>sudo ftpasswd --passwd --name ftpuser --uid 33 --gid 33 --home /var/www --shell /bin/false</code> - Festlegen des Benutzers “*<strong>ftpuser**</strong>” der Zugriff auf den Webserver Ordner hat und der Gruppe <strong>www-data</strong> anbelangt.
Die Parameter <strong>--uid</strong> und <strong>--guid</strong> besagen zu welcher Benutzergruppe dieser Benutzer gehören soll. Hier sollte die <strong>ID</strong> der Gruppe <strong>wwww-data</strong> verwendet werden.</p>
<blockquote>
<blockquote>
<blockquote>
<p>Jeder Benutzer eines Linux-Betriebssystemes belangt zu einer oder mehreren Gruppen, die definieren, welche Berechtigungen der Benutzer hat.<br />
Die Gruppe www-data wird vom Apache2 verwendet. Um dessen id auszulesen kann der Befehl  <code>id www-data</code> verwendet werden.</p>
</blockquote>
</blockquote>
</blockquote>
<p>Nach einem Neustart des FTP-Dienstes mit <code>sudo /etc/init.d/proftpd restart</code> kann die Dateiübertragung ausprobiert werden.<br />
Tritt noch ein Berechtigungsfehler auf, sollten folgende Befehle ausgeführt werden, um Lese/Schreibrecht auf der Ordner <strong>/var/www</strong> zu erhalten.</p>
<pre><code>sudo chmod g+s /var/www
sudo chmod 775 /var/www
sudo chown -R www-data:www-data /var/www</code></pre>";s:12:"content_meta";N;}