1481582287
a:2:{s:7:"content";s:856:"<h5>RevertToHotspot</h5>
<p>Mittels dieses Skriptes wird der Raspberry Pi wieder in seinen Ausgangszustand zurückversetzt. Das <strong>MoveHotspotConfig</strong> Skript wird wieder an seinen ursprünglichen Platz verschoben und die Hotspot konfigurierte <strong><em>interfaces</em></strong> Datei wird mit der von <strong>SetupNewWifiConfigFiles</strong> geschriebenen Datei ersetzt.</p>
<pre><code>#!/bin/bash
echo "-------------------------------------------------------------"

echo " "
echo "Moving Backup Skript back to /home/pi/"
mv /home/config/MoveHotspotConfig /home/pi

echo " "
echo "Moving Hotspot Config Files back to Default Location"
rm /etc/network/interfaces
cp /home/config/etc/network/interfaces_hotspot /etc/network/interfaces

mpc stop

reboot

echo "-------------------------------------------------------------"
Exit 0
</code></pre>";s:12:"content_meta";N;}