1482585785
a:2:{s:7:"content";s:3293:"<h5>MoveHotspotConfig</h5>
<p>Dieses Skript wird mittels der App automatisiert gestartet. Das Ziel dieses Skriptes ist es den Hotspot Modus zu deaktivieren. Dies wird bewerkstelligt indem die dazu relevanten Netz-werkdateien gelöscht werden. Am Ende wird das Skript <strong>SetupNewWifiConfigFiles</strong> gestartet.</p>
<pre><code>echo "-------------------------------------------------------------"

echo "Deleting old interfaces file"
 rm /etc/network/interfaces
 rm /etc/wpa_supplicant/wpa_supplicant.conf

echo "executing Skript SetupNewWifiConfigFiles"
 ./SetupNewWifiConfigFiles

echo "-------------------------------------------------------------"
</code></pre>
<hr />
<h5>SetupNewWifiConfigFiles</h5>
<p>Zu Beginn wird das <strong>MoveHotspotConfig</strong> Skript verschoben damit dieses nicht zwei mal ausgeführt werden kann. Danach schreibt es die Dateien, welche vom vorherigen Skript gelöscht worden sind, mit den erhaltenen Informationen neu. Der Raspberry Pi wird dadurch so konfiguriert, dass er sich automatisch mit dem angegebenen Netzwerk in <strong>wpa_supplicant.conf</strong> verbindet. Das dort angegebene WLAN-Netzwerk wird von den Dateien <strong>/home/pi/wifiname</strong> und <strong>/home/pi/passwort</strong> gebildet. Diese Dateien werden mithilfe der App und der Eingabe des Endbenutzers beschrieben, und nach Verwendung wieder gelöscht. Nach Abschluss der Konfiguration wird der Pi neu gestartet.</p>
<pre><code>echo "-------------------------------------------------------------"

echo "Moving MoveHotspotConfig Skript to /home/pi/BackupConfig"
mv MoveHotspotConfig /home/config/

echo " "
echo "New Interfaces File is now being created"
echo "source-directory /etc/network/interfaces.d" &gt; /etc/network/interfaces
echo "" &gt; /etc/network/interfaces
echo "auto lo" &gt;&gt; /etc/network/interfaces
echo "iface lo inet loopback" &gt;&gt; /etc/network/interfaces
echo "" &gt;&gt; /etc/network/interfaces
echo "iface eth0 inet manual" &gt;&gt; /etc/network/interfaces
echo "" &gt;&gt; /etc/network/interfaces
echo "auto wlan0" &gt;&gt; /etc/network/interfaces
echo "allow-hotplug wlan0" &gt;&gt; /etc/network/interfaces
echo "iface wlan0 inet dhcp" &gt;&gt; /etc/network/interfaces
echo "wpa-conf /etc/wpa_supplicant/wpa_supplicant.conf" &gt;&gt; /etc/network/interfaces

echo " "
echo "New Wpa_Supplicant File is now being created"
echo "ctrl_interface=DIR=/var/run/wpa_supplicant GROUP=netdev" &gt;&gt; /etc/wpa_supplicant/wpa_supplicant.conf
echo "update_config=1" &gt;&gt; /etc/wpa_supplicant/wpa_supplicant.conf
echo "" &gt;&gt; /etc/wpa_supplicant/wpa_supplicant.conf
echo "network={" &gt;&gt; /etc/wpa_supplicant/wpa_supplicant.conf
echo -n '        ssid="' &gt;&gt; /etc/wpa_supplicant/wpa_supplicant.conf
head -c -1  /home/pi/wifiname  &gt;&gt; /etc/wpa_supplicant/wpa_supplicant.conf
echo '"' &gt;&gt; /etc/wpa_supplicant/wpa_supplicant.conf
echo -n '        psk="' &gt;&gt; /etc/wpa_supplicant/wpa_supplicant.conf
head -c -1  /home/pi/password &gt;&gt; /etc/wpa_supplicant/wpa_supplicant.conf
echo '"' &gt;&gt; /etc/wpa_supplicant/wpa_supplicant.conf
echo "}" &gt;&gt; /etc/wpa_supplicant/wpa_supplicant.conf

rm /home/pi/wifiname
rm /home/pi/password

reboot

echo "-------------------------------------------------------------"</code></pre>";s:12:"content_meta";N;}