1481578541
a:2:{s:7:"content";s:1474:"<p>Skripte sind Dokumente, in denen eine Reihe an Terminal Inputs und Befehle definiert werden können. Diese werden dann durch ausführen des Skriptes automatisch abgearbeitet. Je nach Aktion in der Android Applikation werden verschiedenen Skripte ausgeführt.</p>
<h5>Automatische Skriptausführung</h5>
<p>Beim Hochfahren des Raspberry Pi werden mehrere Betriebsystem-Skripte automatisch ausgeführt.
Eines dieser Skripte, welches als eines der letzten ausgeführt wird, heißt <strong>rc.local</strong> im Ordner <strong>/etc/</strong>.
Diesem Skript fügen wir nun zwei Befehle hinzu:</p>
<ul>
<li>
<p><code>sudo aplay -Ddefault:CARD=Device /home/pi/ready.wav &amp;</code> - Nach dem Hochfahren wird eine WAV Datei (<strong><em>/home/pi/ready.wav</em></strong>) abgespielt, um die Betriebsbereitschaft zu signalisieren.</p>
</li>
<li><code>sudo python /home/pi/reset.py &amp;</code> - Ein Skript, das auf das Drücken des Reset-Knopfes wartet, und anschließend das <strong><em>RevertToHotspot</em></strong> Skript ausführt.</li>
</ul>
<pre><code>sudo aplay -Ddefault:CARD=Device /home/pi/ready.wav &amp;
 sudo python /home/pi/reset.py &amp;</code></pre>
<p>Hat der Raspberry Pi keinen <strong>Reset-Knopf</strong>, so sollten wir ein abgeändertes Skript namens <strong>reset</strong> aufrufen.</p>
<pre><code>sudo /home/pi/reset &amp;</code></pre>
<hr />
<p>Alle Skripte müssen nach erstellung erst ausführbar machen mit <code>sudo chmod +x filename.sh</code>.</p>";s:12:"content_meta";N;}