1481582128
a:2:{s:7:"content";s:2120:"<p>Diese Website wurde mit dem Flatfile CMS-System <strong>Grav</strong> erstellt und mit dem <em>Skeleton Theme learn2</em> gestaltet.
Um einen Webserver auf dem Raspberry Pi einzurichten wird das <strong>apache2</strong> Paket benötigt.
Die <strong>php5</strong> Module werden speziell von Grav benötigt.</p>
<pre><code>sudo apt-get install apache2
sudo apt-get install php5
sudo apt-get install php5-gd
sudo apt-get install php5-curl</code></pre>
<p>Nach der Installation können Website im <strong>/var/www/html</strong> Dokumente platziert werden,
die unter Verwendung der IP-Adresse des Raspberry's in einem Webbrowser erreicht werden können.</p>
<h5>Eigener DNS-Name</h5>
<p>wenn man möchte kann man seiner Website einen eigenen DNS-Namen zuteilen.
In unserem Fall möchten wir mit der Adresse <strong>http://MeloDealer/</strong> im Hotspot Modus auf diese Website gelangen.
Dazu muss die IP (192.168.5.1) in <strong>/etc/hosts</strong> mit dem gewünschten Namen eingetragen werden.</p>
<p><code>sudo nano /etc/hosts</code> - Auflößung von Rechnernamen in IP-Adressen (z.B:<strong>localhost --&gt;  127.0.0.1</strong>)</p>
<pre><code>#Auflösung der Adresse 192.168.5.1 zu http://MeloDealer/
192.168.5.1     MeloDealer</code></pre>
<p>Folgend muss mit <code>sudo a2enmod rewrite</code> das <em>Rewrite</em> Modul von apache, zum Umschreiben der Host IP-Adresse, aktiviert werden.   </p>
<p>Das Sicherheitsmodell von apache2 erlaubt es standardmäßig nicht auf andere Unterordner zu verlinken. Besitzt man Seiten, welche sich in Unterordner befinden muss zuerst folgende Option eingeschaltet werden, um diese über Hyperlinks auf der Website öffnen zu können.</p>
<p><code>sudo nano /etc/apache2/apache2.conf</code> - Öffnet die Standardkonfigurationsdatei des Webservers apache2.</p>
<p>Hier muss die Zeile <code>AllowOverride</code> geändert werden:</p>
<pre><code>&lt;Directory /var/www/&gt;
        Options Indexes FollowSymLinks
        AllowOverride All
        Require all granted
&lt;/Directory&gt;</code></pre>
<p><code>sudo service apache2 restart</code> - Neustart des Apache Webservers.</p>";s:12:"content_meta";N;}