1481456608
a:2:{s:7:"content";s:490:"<p>Standardmäßig startet der Raspberry Pi im <strong>Hotspot Modus</strong>. Das heißt, er sendet ein WLAN Signal mit dem Namen <strong>MeloDealer</strong> aus.</p>
<ol>
<li>Herstellen einer Verbindung zum Hotspot</li>
<li>Öffnen der Android Applikation</li>
<li>Den Such Button anklicken</li>
<li>Gefundenen Lautsprecher auswählen</li>
<li>Eingeben der Anmelde-Informationen des Heim-WLANs</li>
</ol>
<p>Anschließend sollte der Raspberry auch im angegebenen WLAN gefunden werden.</p>";s:12:"content_meta";N;}