1482585560
a:2:{s:7:"content";s:3669:"<p>Der Raspberry Pi unterstützt ein breites Spektrum an Betriebssystemen. Neben den vielen Linux-Distributionen ist es neuerdings auch möglich Windows 10 auf den Pi zu installieren. Das wohl bekannteste Betriebssystem für den Computer im Scheckkartenformat ist Raspbian. Deshalb nahmen wir uns folgende zwei Versionen von Raspbian genauer vor:</p>
<p><strong>Raspbian Jessie </strong><br />
Raspbian Jessie ist die aktuellste, mit GUI versehene, Raspbian Version. In Sachen Grafische Benutzeroberfläche wird hierbei auf das Ressourcen-schonende LXDE verwiesen.
Wir haben uns anfänglich für diese Raspbian Jessie Version entschieden um ein Gefühl für die Linux Distribution zu bekommen. Nach kurzer Zeit beschlossen wir allerdings die erzielten Konfigurationen auf dem Betriebssystem Jessie Lite nachzubilden, da im Endeffekt der Raspberry Pi keine Grafische Benutzeroberfläche benötigt, und dies sonst nur unnötig Resourcen verschwenden würde.</p>
<p><strong>Raspbian Jessie Lite</strong><br />
Raspbian Jessie Lite ist eine "abgespeckte" Version von Raspbian Jessie. Der Hauptunterschied von Jessie Lite liegt bei der nicht vorhanden Grafischen Benutzeroberfläche. Es wird also alles über das Terminal gesteuert.</p>
<p>Zuerst muss das aktuelle Raspbian Betriebssystem heruntergeladen werden. Dieses wird in Form eines Images bereitgestellt und kann auf der offiziellen <a href="https://www.raspberrypi.org/downloads/">Webseite</a> von Raspberry Pi heruntergeladen werden. Der heruntergeladene Zip-Ordner, muss mit einem Programm wie <em>Win-Rar</em> oder <em>7-Zip</em> entpackt werden.</p>
<p>Im nächsten Schritt haben wir unter Windows den <strong>Win32DiskImager</strong> heruntergeladen und installiert. Dieser ist dafür da, das heruntergeladene Image auf einem Datenträger zu brennen. Anschließend muss eine SD-Karte an den PC angeschlossen werden, ist kein SD-Karten Leser enthalten, muss ein USB Adapter für Abhilfe schaffen. Die SD-Karte muss vor dem beschreiben der <strong>.iso</strong> Datei, vollständig formartiert werden! Danach wird der Win32DiskImager als Administrator ausgeführt. Hier kann man nun den Speicherort des Images und die Ziel-SD-Karte auswählen. Im letzten Schritt klickt man auf den Write-Button und dass Image wird installiert. Nach vollständiger Installation kann man die SD-Karte in den Kartenslot des Raspberry Pi's schieben und diesen starten.</p>
<blockquote>
<blockquote>
<blockquote>
<p>Kann die SD-Karte im Win32DiskImager nicht ausgewählt werden, kann das mehrere Gründe haben<br />
<strong>•</strong> Die SD-Karte hat Partitionen, die das Windows Betriebssystem nicht lesen kann<br />
<strong>•</strong> Die SD-Karte ist bietet unvollständige Volumeninformationen an.<br />
In der <strong>Datenträgerverwaltung</strong> des Computers ist es möglich den Datenträger zu formatieren.<br />
Wählen Sie nicht den falschen Datenträger aus!<br />
Als letzte Maßnahme können Sie versuchen, die SD-Karte mittels <strong>diskpart</strong> zu bereinigen.</p>
</blockquote>
</blockquote>
</blockquote>
<p>Schritte zum formatieren eines Datenträgers mittels <strong>dispkart</strong>:</p>
<ol>
<li>Öffnen einer Eingabeaufforderung</li>
<li>Eingeben des Befehles <code>dispkart</code>, dieser öffnet nun die dispkart-Shell</li>
<li><code>list disk</code> - Zeigt alle verfügbaren Datenträger an.</li>
<li><code>select disk x</code> - X ist eine Zahl, welcher aus der Liste abgelesen werden kann.</li>
<li>Hoffen, dass Sie nicht ihre Hauptfestplatte ausgewählt haben.</li>
<li><code>clean</code> - Befehl löscht die Volumeninformationen des Datenträgers.</li>
<li>???</li>
<li>PROFIT!</li>
</ol>";s:12:"content_meta";N;}