1481284642
a:2:{s:7:"content";s:1043:"<p>Mithilfe des ALSA-Paketes wird die Soundkarte angesprochen. Zum installieren des Paketes muss folgender Befehl ausgeführt werden.</p>
<pre><code>sudo apt-get install alsa-utils</code></pre>
<p><code>sudo modprobe snd_bcm2835</code> - Ladet das Audio Modul</p>
<p><code>sudo amixer cset numid=3 1</code> - Wählt den Standardaudioausgang (Zahl am Ende)</p>
<blockquote>
<blockquote>
<blockquote>
<p>Audioausgang:<br />
<strong>• 0</strong> = Automatische Auswahl<br />
<strong>• 1</strong> = 3,5mm analoge Audiobuchse<br />
<strong>• 2</strong> = HDMI:   </p>
</blockquote>
</blockquote>
</blockquote>
<p><code>sudo alsamixer</code> - Öffnet den Audiomixer des ALSA-Paketes</p>
<p><code>sudo alsactl store</code> - Speichern der Onboard-Soundkarteneinstellungen</p>
<p>Hier kann man mit der Taste <strong>F6</strong> die richtige Soundkarte anwählen und die Standard Musikwiedergabelautspreche auf der Hardware-Seite definieren. (Aus Qualitätsgründen sollte hardwareseitig die Wiedergabelautstärke maximal angeschlagen sein.)</p>";s:12:"content_meta";N;}