1482585274
a:2:{s:7:"content";s:2497:"<p><strong><em>Music Player Daemon</em></strong> ist das Kern-Softwarepaket im Raspberry Pi, der als Musik Server fungiert. Neben der unterstützung vieler Audioformate bietet er Playlist-Funktionalität und dank vieler Plugins und Bibliotheken, kann er verschieden gestaltet werden.</p>
<p>Der Aufbau des <strong>mpd</strong> Paketes erlaubt es, verschiedene Pakete zur Steuerung des Musikservers zu verwenden. Das Terminalpaket <strong>mpc</strong>, erlaubt es mit einfachen Terminalbefehlen den Musikserver zu steuern.</p>
<pre><code>sudo apt-get install mpd mpc</code></pre>
<p><code>sudo nano /etc/mpd/mpd.conf</code> - Öffnen der Standarteinstellungen des <strong>MPD-Servers</strong></p>
<p>Folgende Abänderungen müssen getroffen werden, damit der Musikserver Ordnungsgemäß funktioniert.
(<code>//</code> kennzeichnet einen Kommentar, welcher vom Code ignoriert werden)</p>
<pre><code>//Standardkonfiguration des MPD-Servers
//Ordner, indem sich die Musikdateien befinden
music_directory         "/home/pi/Musik"

//Ordner, indem sich Playlist Dateien (.m3u) befinden
playlist_directory     "/home/pi/Playlists"

//Wird kein/e user/group angegeben, startet der MPD-Server mit Root-Rechten
#user                  "mpd"
#group                 "nogroup"

//Ermöglicht die Erreichbarkeit des Servers im Netzwerk
#bind_to_address       "localhost"

//Standardport des MPD-Servers
//wird in der Applikation zur Netzwerksuche verwendet.
port                   "6600"

//Einstellungen für das ALSA-Paket
audio_output {
     type            "alsa"
     name            "My ALSA Device"

     //hw:1,0 gibt die Soundkarte als Ausgabegerät an
     device          "hw:1,0"

     //"software" - erlaubt mpc die Lautstärkeregelung
     mixer_type      "software"
}</code></pre>
<p><code>sudo service mpd restart</code> - Startet den MPD-Dienst neu.</p>
<p>Nun können abgelegte Musikdateien im Ordner <strong>/home/pi/Musik/</strong>, vom MPD-Server in seine Datenbank eingelesen werden.</p>
<blockquote>
<blockquote>
<blockquote>
<blockquote>
<p>Werden Dateien geändert, muss der MPD-Server zu aktualisierung seiner Datenbank aufgerufen werden. Dies wird mit dem Befehl <code>mpc update</code> bewerkstelligt.<br />
<strong>Troubleshooting Befehle</strong>:<br />
<strong>• sudo service mpd status</strong> - Anzeigen der Service Status Informationen<br />
<strong>• sudo service mpd restart</strong> - Neustarten des Services  </p>
</blockquote>
</blockquote>
</blockquote>
</blockquote>";s:12:"content_meta";N;}